{
	"express": {
		"routes": "routes/",
		"port": 1700,
        "public": "public",
        "clientAuth": true,
        "userAuth": true,
        "poweredBy": "Some Mythical Creature"
	},
    "mongoose": {
        "username": "username",
        "password": "password",
        "host": "somehost.com",
        "port": 5678,
        "database": "database",
        "models": "models/"
    },
    "morgan": {
        "formatter": "dev",
        "options": {}
    }
}